Chapter 2 Data Transformations with dplyr and tidyr | An Introduction to R for Economics and Business Research
…
rate: self rating of marriage, from 1 (very unhappy) to 5 (very happy)

nbaffairs: number of affairs in past year

2.1 Single table verbs

The dplyr package contains a number of single-table verbs which can be used to handle most of the day-to-day data work. The structure of the commands is always the same: verb(dataframe, operation). The output of the functions is again a dataframe. Let’s look at each of the verbs in turn. We start with filter.

2.1.1 filter to filter observations

Filter can be used to select a subset of observations based on the truth value of a condition. Let’s say that we are only interested in the affairs of men.

filter(affairs, sex == "male")

## # A tibble: 286 × 9
##    sex     age    ym child religious education occupation  rate nbaffairs
##    <fct> <dbl> <dbl> <fct>     <int>     <dbl>      <int> <int>     <dbl>
##  1 male     37 10    no            3        18          7     4         0
##  2 male     57 15    yes           5        18          6     5         0
##  3 male     22  0.75 no            2        17          6     3         0
##  4 male     57 15    yes           2        14          4     4         0
##  5 male     22  1.5  no            4        14          4     5         0
##  6 male     37 15    yes           2        20          7     2         0
##  7 male     27  4    yes           4        18          6     4         0
##  8 male     47 15    yes           5        17          6     4         0
##  9 male     37  4    yes           2        20          6     4         0
## 10 male     42 15    yes           5        20          6     4         0
## # … with 276 more rows
…
